# started on Wed Mar  3 04:55:08 2021


 Performance counter stats for 'system wide':

S0-C0           1          87,504.07 msec cpu-clock                 #    1.000 CPUs utilized          
S0-C0           1              8,355      context-switches          #    0.095 K/sec                  
S0-C0           1                 36      cpu-migrations            #    0.000 K/sec                  
S0-C0           1              3,776      page-faults               #    0.043 K/sec                  
S0-C0           1      1,911,214,454      cycles                    #    0.022 GHz                    
S0-C0           1      3,234,788,780      instructions              #    1.69  insn per cycle         
S0-C0           1        852,784,844      branches                  #    9.746 M/sec                  
S0-C0           1         31,836,249      branch-misses             #    3.73% of all branches        
S0-C1           1          87,504.07 msec cpu-clock                 #    1.000 CPUs utilized          
S0-C1           1             10,047      context-switches          #    0.115 K/sec                  
S0-C1           1                  8      cpu-migrations            #    0.000 K/sec                  
S0-C1           1              4,081      page-faults               #    0.047 K/sec                  
S0-C1           1      1,497,160,386      cycles                    #    0.017 GHz                    
S0-C1           1      3,222,196,191      instructions              #    2.15  insn per cycle         
S0-C1           1        850,409,016      branches                  #    9.719 M/sec                  
S0-C1           1         31,053,063      branch-misses             #    3.65% of all branches        
S0-C2           1          87,504.07 msec cpu-clock                 #    1.000 CPUs utilized          
S0-C2           1              3,206      context-switches          #    0.037 K/sec                  
S0-C2           1                 13      cpu-migrations            #    0.000 K/sec                  
S0-C2           1              3,776      page-faults               #    0.043 K/sec                  
S0-C2           1      1,776,344,484      cycles                    #    0.020 GHz                    
S0-C2           1      3,172,677,553      instructions              #    1.79  insn per cycle         
S0-C2           1        843,982,225      branches                  #    9.645 M/sec                  
S0-C2           1         29,878,638      branch-misses             #    3.54% of all branches        
S0-C3           1          87,504.07 msec cpu-clock                 #    1.000 CPUs utilized          
S0-C3           1              5,211      context-switches          #    0.060 K/sec                  
S0-C3           1                 30      cpu-migrations            #    0.000 K/sec                  
S0-C3           1              3,934      page-faults               #    0.045 K/sec                  
S0-C3           1      1,443,240,034      cycles                    #    0.016 GHz                    
S0-C3           1      3,189,853,509      instructions              #    2.21  insn per cycle         
S0-C3           1        846,675,775      branches                  #    9.676 M/sec                  
S0-C3           1         30,164,110      branch-misses             #    3.56% of all branches        

      87.505181674 seconds time elapsed

