# started on Wed Mar  3 05:12:52 2021


 Performance counter stats for 'system wide':

S0-C0           1          36,264.83 msec cpu-clock                 #    1.000 CPUs utilized          
S0-C0           1              4,928      context-switches          #    0.136 K/sec                  
S0-C0           1                 13      cpu-migrations            #    0.000 K/sec                  
S0-C0           1              9,297      page-faults               #    0.256 K/sec                  
S0-C0           1        783,755,529      cycles                    #    0.022 GHz                    
S0-C0           1        827,885,015      instructions              #    1.06  insn per cycle         
S0-C0           1      2,730,065,275      branches                  #   75.281 M/sec                  
S0-C0           1        478,497,271      branch-misses             #   17.53% of all branches        
S0-C1           1          36,264.83 msec cpu-clock                 #    1.000 CPUs utilized          
S0-C1           1                922      context-switches          #    0.025 K/sec                  
S0-C1           1                  6      cpu-migrations            #    0.000 K/sec                  
S0-C1           1              9,422      page-faults               #    0.260 K/sec                  
S0-C1           1      1,197,189,669      cycles                    #    0.033 GHz                    
S0-C1           1        797,432,443      instructions              #    0.67  insn per cycle         
S0-C1           1      2,725,786,173      branches                  #   75.163 M/sec                  
S0-C1           1        491,536,901      branch-misses             #   18.03% of all branches        
S0-C2           1          36,264.83 msec cpu-clock                 #    1.000 CPUs utilized          
S0-C2           1              1,169      context-switches          #    0.032 K/sec                  
S0-C2           1                  5      cpu-migrations            #    0.000 K/sec                  
S0-C2           1              9,152      page-faults               #    0.252 K/sec                  
S0-C2           1        961,460,180      cycles                    #    0.027 GHz                    
S0-C2           1        793,717,134      instructions              #    0.83  insn per cycle         
S0-C2           1      2,725,351,043      branches                  #   75.151 M/sec                  
S0-C2           1        491,721,496      branch-misses             #   18.04% of all branches        
S0-C3           1          36,264.83 msec cpu-clock                 #    1.000 CPUs utilized          
S0-C3           1              4,573      context-switches          #    0.126 K/sec                  
S0-C3           1                 13      cpu-migrations            #    0.000 K/sec                  
S0-C3           1              9,200      page-faults               #    0.254 K/sec                  
S0-C3           1        224,588,466      cycles                    #    0.006 GHz                    
S0-C3           1        817,987,281      instructions              #    3.64  insn per cycle         
S0-C3           1      2,728,678,119      branches                  #   75.243 M/sec                  
S0-C3           1        478,089,476      branch-misses             #   17.52% of all branches        

      36.265431854 seconds time elapsed

